<svg width="60" height="60" viewBox="0 0 120 120" fill="none" xmlns="http://www.w3.org/2000/svg">
<path d="M0 0H120V120H0V0Z" fill="#F6F6F6"/>
<path d="M18 60C18 55.5817 21.5817 52 26 52H93C97.4183 52 101 55.5817 101 60C101 64.4183 97.4183 68 93 68H26C21.5817 68 18 64.4183 18 60Z" fill="#C0C1C3"/>
<path d="M82.2729 69.2403L84.3338 74.9025L82.4544 75.5866L80.3935 69.9243L77.612 72.0282L78.6058 62.0889L85.756 69.064L82.2729 69.2403Z" fill="#5C5D5F"/>
</svg>
