<svg width="60" height="60" viewBox="0 0 120 120" fill="none" xmlns="http://www.w3.org/2000/svg">
<g clip-path="url(#clip0_888_1870)">
<mask id="path-1-inside-1_888_1870" fill="white">
<path d="M0 0H120V120H0V0Z"/>
</mask>
<path d="M0 0H120V120H0V0Z" fill="#F6F6F6"/>
<path d="M0 0V-1H-1V0H0ZM120 0H121V-1H120V0ZM0 1H120V-1H0V1ZM119 0V120H121V0H119ZM1 120V0H-1V120H1Z" fill="#EDEDED" mask="url(#path-1-inside-1_888_1870)"/>
<rect x="45" y="81.5" width="30" height="6" rx="3" fill="#8C8D91"/>
<rect x="41" y="33" width="38" height="38" rx="3" fill="#5C5D5F"/>
<path d="M68.75 42.375H51.25C50.7668 42.375 50.375 42.7668 50.375 43.25V60.75C50.375 61.2332 50.7668 61.625 51.25 61.625H68.75C69.2332 61.625 69.625 61.2332 69.625 60.75V43.25C69.625 42.7668 69.2332 42.375 68.75 42.375Z" stroke="#F6F6F6" stroke-width="2" stroke-linecap="round" stroke-linejoin="round"/>
<path d="M69.625 55.5L64.9984 50.8735C64.917 50.7908 64.82 50.7251 64.7129 50.6803C64.6059 50.6355 64.491 50.6124 64.375 50.6124C64.259 50.6124 64.1441 50.6355 64.0371 50.6803C63.93 50.7251 63.833 50.7908 63.7516 50.8735L58.8734 55.7516C58.792 55.8343 58.695 55.8999 58.5879 55.9447C58.4809 55.9895 58.366 56.0126 58.25 56.0126C58.134 56.0126 58.0191 55.9895 57.9121 55.9447C57.805 55.8999 57.708 55.8343 57.6266 55.7516L55.3734 53.4985C55.292 53.4158 55.195 53.3501 55.0879 53.3053C54.9809 53.2605 54.866 53.2374 54.75 53.2374C54.634 53.2374 54.5191 53.2605 54.4121 53.3053C54.305 53.3501 54.208 53.4158 54.1266 53.4985L50.375 57.25" stroke="#F6F6F6" stroke-width="2" stroke-linecap="round" stroke-linejoin="round"/>
<path d="M56.9375 48.9375C57.4207 48.9375 57.8125 48.5457 57.8125 48.0625C57.8125 47.5793 57.4207 47.1875 56.9375 47.1875C56.4543 47.1875 56.0625 47.5793 56.0625 48.0625C56.0625 48.5457 56.4543 48.9375 56.9375 48.9375Z" fill="#F6F6F6"/>
<rect x="97" y="81.5" width="30" height="6" rx="3" fill="#8C8D91"/>
<rect x="93" y="33" width="38" height="38" rx="3" fill="#5C5D5F"/>
<path d="M120.75 42.375H103.25C102.767 42.375 102.375 42.7668 102.375 43.25V60.75C102.375 61.2332 102.767 61.625 103.25 61.625H120.75C121.233 61.625 121.625 61.2332 121.625 60.75V43.25C121.625 42.7668 121.233 42.375 120.75 42.375Z" stroke="#F6F6F6" stroke-width="2" stroke-linecap="round" stroke-linejoin="round"/>
<path d="M121.625 55.5L116.998 50.8735C116.917 50.7908 116.82 50.7251 116.713 50.6803C116.606 50.6355 116.491 50.6124 116.375 50.6124C116.259 50.6124 116.144 50.6355 116.037 50.6803C115.93 50.7251 115.833 50.7908 115.752 50.8735L110.873 55.7516C110.792 55.8343 110.695 55.8999 110.588 55.9447C110.481 55.9895 110.366 56.0126 110.25 56.0126C110.134 56.0126 110.019 55.9895 109.912 55.9447C109.805 55.8999 109.708 55.8343 109.627 55.7516L107.373 53.4985C107.292 53.4158 107.195 53.3501 107.088 53.3053C106.981 53.2605 106.866 53.2374 106.75 53.2374C106.634 53.2374 106.519 53.2605 106.412 53.3053C106.305 53.3501 106.208 53.4158 106.127 53.4985L102.375 57.25" stroke="#F6F6F6" stroke-width="2" stroke-linecap="round" stroke-linejoin="round"/>
<path d="M108.938 48.9375C109.421 48.9375 109.812 48.5457 109.812 48.0625C109.812 47.5793 109.421 47.1875 108.938 47.1875C108.454 47.1875 108.062 47.5793 108.062 48.0625C108.062 48.5457 108.454 48.9375 108.938 48.9375Z" fill="#F6F6F6"/>
<rect x="-7" y="81.5" width="30" height="6" rx="3" fill="#8C8D91"/>
<rect x="-11" y="33" width="38" height="38" rx="3" fill="#5C5D5F"/>
<path d="M16.75 42.375H-0.75C-1.23325 42.375 -1.625 42.7668 -1.625 43.25V60.75C-1.625 61.2332 -1.23325 61.625 -0.75 61.625H16.75C17.2332 61.625 17.625 61.2332 17.625 60.75V43.25C17.625 42.7668 17.2332 42.375 16.75 42.375Z" stroke="#F6F6F6" stroke-width="2" stroke-linecap="round" stroke-linejoin="round"/>
<path d="M17.625 55.5L12.9984 50.8735C12.917 50.7908 12.82 50.7251 12.7129 50.6803C12.6059 50.6355 12.491 50.6124 12.375 50.6124C12.259 50.6124 12.1441 50.6355 12.0371 50.6803C11.93 50.7251 11.833 50.7908 11.7516 50.8735L6.87344 55.7516C6.79202 55.8343 6.69497 55.8999 6.58794 55.9447C6.48091 55.9895 6.36603 56.0126 6.25 56.0126C6.13397 56.0126 6.01909 55.9895 5.91206 55.9447C5.80503 55.8999 5.70798 55.8343 5.62656 55.7516L3.37344 53.4985C3.29202 53.4158 3.19497 53.3501 3.08794 53.3053C2.98091 53.2605 2.86603 53.2374 2.75 53.2374C2.63397 53.2374 2.51909 53.2605 2.41206 53.3053C2.30503 53.3501 2.20798 53.4158 2.12656 53.4985L-1.625 57.25" stroke="#F6F6F6" stroke-width="2" stroke-linecap="round" stroke-linejoin="round"/>
<path d="M4.9375 48.9375C5.42075 48.9375 5.8125 48.5457 5.8125 48.0625C5.8125 47.5793 5.42075 47.1875 4.9375 47.1875C4.45425 47.1875 4.0625 47.5793 4.0625 48.0625C4.0625 48.5457 4.45425 48.9375 4.9375 48.9375Z" fill="#F6F6F6"/>
</g>
<defs>
<clipPath id="clip0_888_1870">
<rect width="120" height="120" fill="white"/>
</clipPath>
</defs>
</svg>
